[gd_scene load_steps=6 format=3 uid="uid://dpb5ogke8ops5"]

[ext_resource type="Script" path="res://jimjam.gd" id="2_jb204"]
[ext_resource type="Texture2D" uid="uid://bl88woarchnn8" path="res://icon.svg" id="2_k8vlp"]

[sub_resource type="Animation" id="Animation_ohew5"]
resource_name = "wobble"
length = 4.0
loop_mode = 1
tracks/0/type = "value"
tracks/0/imported = false
tracks/0/enabled = true
tracks/0/path = NodePath("script_here/Node0:rotation")
tracks/0/interp = 3
tracks/0/loop_wrap = true
tracks/0/keys = {
"times": PackedFloat32Array(0, 2, 4),
"transitions": PackedFloat32Array(1, 1, 1),
"update": 0,
"values": [0.0, 0.565487, 0.0]
}
tracks/1/type = "value"
tracks/1/imported = false
tracks/1/enabled = true
tracks/1/path = NodePath("script_here/Node1:rotation")
tracks/1/interp = 3
tracks/1/loop_wrap = true
tracks/1/keys = {
"times": PackedFloat32Array(0, 2),
"transitions": PackedFloat32Array(1, 1),
"update": 0,
"values": [-0.565487, 0.493928]
}

[sub_resource type="Animation" id="Animation_piv14"]
length = 0.001
tracks/0/type = "value"
tracks/0/imported = false
tracks/0/enabled = true
tracks/0/path = NodePath("script_here/Node0:rotation")
tracks/0/interp = 1
tracks/0/loop_wrap = true
tracks/0/keys = {
"times": PackedFloat32Array(0),
"transitions": PackedFloat32Array(1),
"update": 0,
"values": [0.0]
}
tracks/1/type = "value"
tracks/1/imported = false
tracks/1/enabled = true
tracks/1/path = NodePath("script_here/Node1:rotation")
tracks/1/interp = 1
tracks/1/loop_wrap = true
tracks/1/keys = {
"times": PackedFloat32Array(0),
"transitions": PackedFloat32Array(1),
"update": 0,
"values": [0.0]
}

[sub_resource type="AnimationLibrary" id="AnimationLibrary_275vv"]
_data = {
"RESET": SubResource("Animation_piv14"),
"wobble": SubResource("Animation_ohew5")
}

[node name="jimjamsc1" type="Node2D"]
position = Vector2(399, 314)

[node name="script_here" type="Node2D" parent="."]
script = ExtResource("2_jb204")
spriteNodes = [NodePath("/root/@EditorNode@16748/@Panel@13/@VBoxContainer@14/DockHSplitLeftL/DockHSplitLeftR/DockHSplitMain/@VBoxContainer@25/DockVSplitCenter/@VSplitContainer@46/@VBoxContainer@47/@PanelContainer@92/MainScreen/@CanvasItemEditor@9206/@VSplitContainer@9028/@HSplitContainer@9030/@HSplitContainer@9032/@Control@9033/@SubViewportContainer@9034/@SubViewport@9035/Node2D/jimjamsc1/script_here/Node0"), NodePath("/root/@EditorNode@16748/@Panel@13/@VBoxContainer@14/DockHSplitLeftL/DockHSplitLeftR/DockHSplitMain/@VBoxContainer@25/DockVSplitCenter/@VSplitContainer@46/@VBoxContainer@47/@PanelContainer@92/MainScreen/@CanvasItemEditor@9206/@VSplitContainer@9028/@HSplitContainer@9030/@HSplitContainer@9032/@Control@9033/@SubViewportContainer@9034/@SubViewport@9035/Node2D/jimjamsc1/script_here/Node1")]

[node name="Node0" type="Sprite2D" parent="script_here"]
texture = ExtResource("2_k8vlp")

[node name="Node1" type="Sprite2D" parent="script_here"]
position = Vector2(50, 50)
texture = ExtResource("2_k8vlp")

[node name="AnimationPlayer" type="AnimationPlayer" parent="."]
libraries = {
"": SubResource("AnimationLibrary_275vv")
}
